user.mcasolin.00276262.physics_Main.DAOD_TOPQ4.r7562_p2521_p2667.HtX4Tops_00-00-12_out.root/
user.mcasolin.00276329.physics_Main.DAOD_TOPQ4.r7562_p2521_p2667.HtX4Tops_00-00-12_out.root/
user.mcasolin.00276336.physics_Main.DAOD_TOPQ4.r7562_p2521_p2667.HtX4Tops_00-00-12_out.root/
user.mcasolin.00276416.physics_Main.DAOD_TOPQ4.r7562_p2521_p2667.HtX4Tops_00-00-12_out.root/
user.mcasolin.00276511.physics_Main.DAOD_TOPQ4.r7562_p2521_p2667.HtX4Tops_00-00-12_out.root/
user.mcasolin.00276689.physics_Main.DAOD_TOPQ4.r7562_p2521_p2667.HtX4Tops_00-00-12_out.root/
user.mcasolin.00276778.physics_Main.DAOD_TOPQ4.r7562_p2521_p2667.HtX4Tops_00-00-12_out.root/
user.mcasolin.00276790.physics_Main.DAOD_TOPQ4.r7562_p2521_p2667.HtX4Tops_00-00-12_out.root/
user.mcasolin.00276952.physics_Main.DAOD_TOPQ4.r7562_p2521_p2667.HtX4Tops_00-00-12_out.root/
user.mcasolin.00276954.physics_Main.DAOD_TOPQ4.r7562_p2521_p2667.HtX4Tops_00-00-12_out.root/
user.mcasolin.00278880.physics_Main.DAOD_TOPQ4.r7562_p2521_p2667.HtX4Tops_00-00-12_out.root/
user.mcasolin.00278912.physics_Main.DAOD_TOPQ4.r7562_p2521_p2667.HtX4Tops_00-00-12_out.root/
user.mcasolin.00278968.physics_Main.DAOD_TOPQ4.r7562_p2521_p2667.HtX4Tops_00-00-12_out.root/
user.mcasolin.00279169.physics_Main.DAOD_TOPQ4.r7562_p2521_p2667.HtX4Tops_00-00-12_out.root/
user.mcasolin.00279259.physics_Main.DAOD_TOPQ4.r7562_p2521_p2667.HtX4Tops_00-00-12_out.root/
user.mcasolin.00279279.physics_Main.DAOD_TOPQ4.r7562_p2521_p2667.HtX4Tops_00-00-12_out.root/
user.mcasolin.00279284.physics_Main.DAOD_TOPQ4.r7562_p2521_p2667.HtX4Tops_00-00-12_out.root/
user.mcasolin.00279345.physics_Main.DAOD_TOPQ4.r7562_p2521_p2667.HtX4Tops_00-00-12_out.root/
user.mcasolin.00279515.physics_Main.DAOD_TOPQ4.r7562_p2521_p2667.HtX4Tops_00-00-12_out.root/
user.mcasolin.00279598.physics_Main.DAOD_TOPQ4.r7562_p2521_p2667.HtX4Tops_00-00-12_out.root/
user.mcasolin.00279685.physics_Main.DAOD_TOPQ4.r7562_p2521_p2667.HtX4Tops_00-00-12_out.root/
user.mcasolin.00279764.physics_Main.DAOD_TOPQ4.r7562_p2521_p2667.HtX4Tops_00-00-12_out.root/
user.mcasolin.00279813.physics_Main.DAOD_TOPQ4.r7562_p2521_p2667.HtX4Tops_00-00-12_out.root/
user.mcasolin.00279867.physics_Main.DAOD_TOPQ4.r7562_p2521_p2667.HtX4Tops_00-00-12_out.root/
user.mcasolin.00279928.physics_Main.DAOD_TOPQ4.r7562_p2521_p2667.HtX4Tops_00-00-12_out.root/
user.mcasolin.00279932.physics_Main.DAOD_TOPQ4.r7562_p2521_p2667.HtX4Tops_00-00-12_out.root/
user.mcasolin.00279984.physics_Main.DAOD_TOPQ4.r7562_p2521_p2667.HtX4Tops_00-00-12_out.root/
user.mcasolin.00280231.physics_Main.DAOD_TOPQ4.r7562_p2521_p2667.HtX4Tops_00-00-12_out.root/
user.mcasolin.00280319.physics_Main.DAOD_TOPQ4.r7562_p2521_p2667.HtX4Tops_00-00-12_out.root/
user.mcasolin.00280368.physics_Main.DAOD_TOPQ4.r7562_p2521_p2667.HtX4Tops_00-00-12_out.root/
user.mcasolin.00280423.physics_Main.DAOD_TOPQ4.r7562_p2521_p2667.HtX4Tops_00-00-12_out.root/
user.mcasolin.00280464.physics_Main.DAOD_TOPQ4.r7562_p2521_p2667.HtX4Tops_00-00-12_out.root/
user.mcasolin.00280500.physics_Main.DAOD_TOPQ4.r7562_p2521_p2667.HtX4Tops_00-00-12_out.root/
user.mcasolin.00280520.physics_Main.DAOD_TOPQ4.r7562_p2521_p2667.HtX4Tops_00-00-12_out.root/
user.mcasolin.00280614.physics_Main.DAOD_TOPQ4.r7562_p2521_p2667.HtX4Tops_00-00-12_out.root/
user.mcasolin.00280673.physics_Main.DAOD_TOPQ4.r7562_p2521_p2667.HtX4Tops_00-00-12_out.root/
user.mcasolin.00280753.physics_Main.DAOD_TOPQ4.r7562_p2521_p2667.HtX4Tops_00-00-12_out.root/
user.mcasolin.00280853.physics_Main.DAOD_TOPQ4.r7562_p2521_p2667.HtX4Tops_00-00-12_out.root/
user.mcasolin.00280862.physics_Main.DAOD_TOPQ4.r7562_p2521_p2667.HtX4Tops_00-00-12_out.root/
user.mcasolin.00280950.physics_Main.DAOD_TOPQ4.r7562_p2521_p2667.HtX4Tops_00-00-12_out.root/
user.mcasolin.00280977.physics_Main.DAOD_TOPQ4.r7562_p2521_p2667.HtX4Tops_00-00-12_out.root/
user.mcasolin.00281070.physics_Main.DAOD_TOPQ4.r7562_p2521_p2667.HtX4Tops_00-00-12_out.root/
user.mcasolin.00281074.physics_Main.DAOD_TOPQ4.r7562_p2521_p2667.HtX4Tops_00-00-12_out.root/
user.mcasolin.00281075.physics_Main.DAOD_TOPQ4.r7562_p2521_p2667.HtX4Tops_00-00-12_out.root/
user.mcasolin.00281317.physics_Main.DAOD_TOPQ4.r7562_p2521_p2667.HtX4Tops_00-00-12_out.root/
user.mcasolin.00281411.physics_Main.DAOD_TOPQ4.r7562_p2521_p2667.HtX4Tops_00-00-12_out.root/
user.mcasolin.00282625.physics_Main.DAOD_TOPQ4.r7562_p2521_p2667.HtX4Tops_00-00-12_out.root/
user.mcasolin.00282631.physics_Main.DAOD_TOPQ4.r7562_p2521_p2667.HtX4Tops_00-00-12_out.root/
user.mcasolin.00282712.physics_Main.DAOD_TOPQ4.r7562_p2521_p2667.HtX4Tops_00-00-12_out.root/
user.mcasolin.00282784.physics_Main.DAOD_TOPQ4.r7562_p2521_p2667.HtX4Tops_00-00-12_out.root/
user.mcasolin.00282992.physics_Main.DAOD_TOPQ4.r7562_p2521_p2667.HtX4Tops_00-00-12_out.root/
user.mcasolin.00283074.physics_Main.DAOD_TOPQ4.r7562_p2521_p2667.HtX4Tops_00-00-12_out.root/
user.mcasolin.00283155.physics_Main.DAOD_TOPQ4.r7562_p2521_p2667.HtX4Tops_00-00-12_out.root/
user.mcasolin.00283270.physics_Main.DAOD_TOPQ4.r7562_p2521_p2667.HtX4Tops_00-00-12_out.root/
user.mcasolin.00283429.physics_Main.DAOD_TOPQ4.r7562_p2521_p2667.HtX4Tops_00-00-12_out.root/
user.mcasolin.00283608.physics_Main.DAOD_TOPQ4.r7562_p2521_p2667.HtX4Tops_00-00-12_out.root/
user.mcasolin.00283780.physics_Main.DAOD_TOPQ4.r7562_p2521_p2667.HtX4Tops_00-00-12_out.root/
user.mcasolin.00284006.physics_Main.DAOD_TOPQ4.r7562_p2521_p2667.HtX4Tops_00-00-12_out.root/
user.mcasolin.00284154.physics_Main.DAOD_TOPQ4.r7562_p2521_p2667.HtX4Tops_00-00-12_out.root/
user.mcasolin.00284213.physics_Main.DAOD_TOPQ4.r7562_p2521_p2667.HtX4Tops_00-00-12_out.root/
user.mcasolin.00284285.physics_Main.DAOD_TOPQ4.r7562_p2521_p2667.HtX4Tops_00-00-12_out.root/
user.mcasolin.00284420.physics_Main.DAOD_TOPQ4.r7562_p2521_p2667.HtX4Tops_00-00-12_out.root/
user.mcasolin.00284427.physics_Main.DAOD_TOPQ4.r7562_p2521_p2667.HtX4Tops_00-00-12_out.root/
user.mcasolin.00284484.physics_Main.DAOD_TOPQ4.r7562_p2521_p2667.HtX4Tops_00-00-12_out.root/
user.mcasolin.00297730.physics_Main.DAOD_TOPQ4.f694_m1583_p2667.HtX4Tops_00-00-12_out.root/
user.mcasolin.00298595.physics_Main.DAOD_TOPQ4.f698_m1594_p2667.HtX4Tops_00-00-12_out.root/
user.mcasolin.00298609.physics_Main.DAOD_TOPQ4.f698_m1594_p2667.HtX4Tops_00-00-12_out.root/
user.mcasolin.00298633.physics_Main.DAOD_TOPQ4.f698_m1594_p2667.HtX4Tops_00-00-12_out.root/
user.mcasolin.00298687.physics_Main.DAOD_TOPQ4.f698_m1594_p2667.HtX4Tops_00-00-12_out.root/
user.mcasolin.00298690.physics_Main.DAOD_TOPQ4.f698_m1594_p2667.HtX4Tops_00-00-12_out.root/
user.mcasolin.00298771.physics_Main.DAOD_TOPQ4.f698_m1594_p2667.HtX4Tops_00-00-12_out.root/
user.mcasolin.00298773.physics_Main.DAOD_TOPQ4.f698_m1594_p2667.HtX4Tops_00-00-12_out.root/
user.mcasolin.00298862.physics_Main.DAOD_TOPQ4.f696_m1588_p2667.HtX4Tops_00-00-12_out.root/
user.mcasolin.00298967.physics_Main.DAOD_TOPQ4.f696_m1588_p2667.HtX4Tops_00-00-12_out.root/
user.mcasolin.00299055.physics_Main.DAOD_TOPQ4.f698_m1594_p2667.HtX4Tops_00-00-12_out.root/
user.mcasolin.00299144.physics_Main.DAOD_TOPQ4.f698_m1594_p2667.HtX4Tops_00-00-12_out.root/
user.mcasolin.00299147.physics_Main.DAOD_TOPQ4.f698_m1594_p2667.HtX4Tops_00-00-12_out.root/
user.mcasolin.00299184.physics_Main.DAOD_TOPQ4.f698_m1594_p2667.HtX4Tops_00-00-12_out.root/
user.mcasolin.00299243.physics_Main.DAOD_TOPQ4.f698_m1594_p2667.HtX4Tops_00-00-12_out.root/
user.mcasolin.00299584.physics_Main.DAOD_TOPQ4.f703_m1600_p2667.HtX4Tops_00-00-12_out.root/
user.mcasolin.00300279.physics_Main.DAOD_TOPQ4.f705_m1606_p2667.HtX4Tops_00-00-12_out.root/
user.mcasolin.00300345.physics_Main.DAOD_TOPQ4.f705_m1606_p2667.HtX4Tops_00-00-12_out.root/
user.mcasolin.00300415.physics_Main.DAOD_TOPQ4.f705_m1606_p2667.HtX4Tops_00-00-12_out.root/
user.mcasolin.00300418.physics_Main.DAOD_TOPQ4.f705_m1606_p2667.HtX4Tops_00-00-12_out.root/
user.mcasolin.00300487.physics_Main.DAOD_TOPQ4.f705_m1606_p2667.HtX4Tops_00-00-12_out.root/
user.mcasolin.00300540.physics_Main.DAOD_TOPQ4.f705_m1606_p2667.HtX4Tops_00-00-12_out.root/
user.mcasolin.00300571.physics_Main.DAOD_TOPQ4.f705_m1606_p2667.HtX4Tops_00-00-12_out.root/
user.mcasolin.00300600.physics_Main.DAOD_TOPQ4.f708_m1606_p2667.HtX4Tops_00-00-12_out.root/
user.mcasolin.00300655.physics_Main.DAOD_TOPQ4.f708_m1606_p2667.HtX4Tops_00-00-12_out.root/
user.mcasolin.00300687.physics_Main.DAOD_TOPQ4.f708_m1606_p2667.HtX4Tops_00-00-12_out.root/
user.mcasolin.00300784.physics_Main.DAOD_TOPQ4.f708_m1606_p2667.HtX4Tops_00-00-12_out.root/
user.mcasolin.00300800.physics_Main.DAOD_TOPQ4.f708_m1606_p2667.HtX4Tops_00-00-12_out.root/
user.mcasolin.00300863.physics_Main.DAOD_TOPQ4.f708_m1606_p2667.HtX4Tops_00-00-12_out.root/
user.mcasolin.00300908.physics_Main.DAOD_TOPQ4.f708_m1606_p2667.HtX4Tops_00-00-12_out.root/
user.mcasolin.00301912.physics_Main.DAOD_TOPQ4.f709_m1611_p2667.HtX4Tops_00-00-12_out.root/
user.mcasolin.00301918.physics_Main.DAOD_TOPQ4.f709_m1611_p2667.HtX4Tops_00-00-12_out.root/
user.mcasolin.00301932.physics_Main.DAOD_TOPQ4.f709_m1611_p2667.HtX4Tops_00-00-12_out.root/
user.mcasolin.00301973.physics_Main.DAOD_TOPQ4.f709_m1611_p2667.HtX4Tops_00-00-12_out.root/
user.mcasolin.00302053.physics_Main.DAOD_TOPQ4.f709_m1611_p2689.HtX4Tops_00-00-12_out.root/
user.mcasolin.00302137.physics_Main.DAOD_TOPQ4.f709_m1620_p2689.HtX4Tops_00-00-12_out.root/
user.mcasolin.00302265.physics_Main.DAOD_TOPQ4.f709_m1620_p2689.HtX4Tops_00-00-12_out.root/
user.mcasolin.00302269.physics_Main.DAOD_TOPQ4.f709_m1620_p2689.HtX4Tops_00-00-12_out.root/
user.mcasolin.00302300.physics_Main.DAOD_TOPQ4.f711_m1620_p2689.HtX4Tops_00-00-12_out.root/
user.mcasolin.00302347.physics_Main.DAOD_TOPQ4.f711_m1620_p2689.HtX4Tops_00-00-12_out.root/
user.mcasolin.00302380.physics_Main.DAOD_TOPQ4.f711_m1620_p2689.HtX4Tops_00-00-12_out.root/
user.mcasolin.00302391.physics_Main.DAOD_TOPQ4.f711_m1620_p2689.HtX4Tops_00-00-12_out.root/
user.mcasolin.00302393.physics_Main.DAOD_TOPQ4.f711_m1620_p2689.HtX4Tops_00-00-12_out.root/
user.mcasolin.00302737.physics_Main.DAOD_TOPQ4.f711_m1620_p2689.HtX4Tops_00-00-12_out.root/
user.mcasolin.00302831.physics_Main.DAOD_TOPQ4.f711_m1620_p2689.HtX4Tops_00-00-12_out.root/
user.mcasolin.00302872.physics_Main.DAOD_TOPQ4.f716_m1620_p2689.HtX4Tops_00-00-12_out.root/
user.mcasolin.00302919.physics_Main.DAOD_TOPQ4.f715_m1620_p2689.HtX4Tops_00-00-12_out.root/
user.mcasolin.00302925.physics_Main.DAOD_TOPQ4.f715_m1620_p2689.HtX4Tops_00-00-12_out.root/
user.mcasolin.00302956.physics_Main.DAOD_TOPQ4.f715_m1620_p2689.HtX4Tops_00-00-12_out.root/
user.mcasolin.00303007.physics_Main.DAOD_TOPQ4.f715_m1620_p2689.HtX4Tops_00-00-12_out.root/
user.mcasolin.00303079.physics_Main.DAOD_TOPQ4.f715_m1620_p2689.HtX4Tops_00-00-12_out.root/
user.mcasolin.00303201.physics_Main.DAOD_TOPQ4.f715_m1620_p2689.HtX4Tops_00-00-12_out.root/
user.mcasolin.00303208.physics_Main.DAOD_TOPQ4.f715_m1620_p2689.HtX4Tops_00-00-12_out.root/
user.mcasolin.00303264.physics_Main.DAOD_TOPQ4.f715_m1620_p2689.HtX4Tops_00-00-12_out.root/
user.mcasolin.00303266.physics_Main.DAOD_TOPQ4.f715_m1620_p2689.HtX4Tops_00-00-12_out.root/
user.mcasolin.00303291.physics_Main.DAOD_TOPQ4.f716_m1620_p2689.HtX4Tops_00-00-12_out.root/
user.mcasolin.00303304.physics_Main.DAOD_TOPQ4.f716_m1620_p2689.HtX4Tops_00-00-12_out.root/
user.mcasolin.00303338.physics_Main.DAOD_TOPQ4.f716_m1620_p2689.HtX4Tops_00-00-12_out.root/
user.mcasolin.00303421.physics_Main.DAOD_TOPQ4.f716_m1620_p2689.HtX4Tops_00-00-12_out.root/
user.mcasolin.00303499.physics_Main.DAOD_TOPQ4.f716_m1620_p2689.HtX4Tops_00-00-12_out.root/
user.mcasolin.00303560.physics_Main.DAOD_TOPQ4.f716_m1620_p2689.HtX4Tops_00-00-12_out.root/
user.mcasolin.302055.MadGraphPythia8EvtGen.DAOD_TOPQ1.e4017_s2608_s2183_r7772_r7676_p2669.HtX4Tops_00-00-12_out.root/
user.mcasolin.302056.MadGraphPythia8EvtGen.DAOD_TOPQ1.e4017_s2608_s2183_r7772_r7676_p2669.HtX4Tops_00-00-12_out.root/
user.mcasolin.302057.MadGraphPythia8EvtGen.DAOD_TOPQ1.e4017_s2608_s2183_r7772_r7676_p2669.HtX4Tops_00-00-12_out.root/
user.mcasolin.302058.MadGraphPythia8EvtGen.DAOD_TOPQ1.e4017_s2608_s2183_r7772_r7676_p2669.HtX4Tops_00-00-12_out.root/
user.mcasolin.302059.MadGraphPythia8EvtGen.DAOD_TOPQ1.e4017_s2608_s2183_r7772_r7676_p2669.HtX4Tops_00-00-12_out.root/
user.mcasolin.302468.ProtosLHEFPythia8EvtGen.DAOD_TOPQ1.e4112_s2608_r7772_r7676_p2669.HtX4Tops_00-00-12_out.root/
user.mcasolin.302469.ProtosLHEFPythia8EvtGen.DAOD_TOPQ1.e4112_s2608_r7772_r7676_p2669.HtX4Tops_00-00-12_out.root/
user.mcasolin.302470.ProtosLHEFPythia8EvtGen.DAOD_TOPQ1.e4112_s2608_r7772_r7676_p2669.HtX4Tops_00-00-12_out.root/
user.mcasolin.302471.ProtosLHEFPythia8EvtGen.DAOD_TOPQ1.e4112_s2608_r7772_r7676_p2669.HtX4Tops_00-00-12_out.root/
user.mcasolin.302472.ProtosLHEFPythia8EvtGen.DAOD_TOPQ1.e4112_s2608_r7772_r7676_p2669.HtX4Tops_00-00-12_out.root/
user.mcasolin.302473.ProtosLHEFPythia8EvtGen.DAOD_TOPQ1.e4112_s2608_r7772_r7676_p2669.HtX4Tops_00-00-12_out.root/
user.mcasolin.302474.ProtosLHEFPythia8EvtGen.DAOD_TOPQ1.e4112_s2608_r7772_r7676_p2669.HtX4Tops_00-00-12_out.root/
user.mcasolin.302475.ProtosLHEFPythia8EvtGen.DAOD_TOPQ1.e4112_s2608_r7772_r7676_p2669.HtX4Tops_00-00-12_out.root/
user.mcasolin.302476.ProtosLHEFPythia8EvtGen.DAOD_TOPQ1.e4112_s2608_r7772_r7676_p2669.HtX4Tops_00-00-12_out.root/
user.mcasolin.302477.ProtosLHEFPythia8EvtGen.DAOD_TOPQ1.e4112_s2608_r7772_r7676_p2669.HtX4Tops_00-00-12_out.root/
user.mcasolin.302478.ProtosLHEFPythia8EvtGen.DAOD_TOPQ1.e4112_s2608_r7772_r7676_p2669.HtX4Tops_00-00-12_out.root/
user.mcasolin.302479.ProtosLHEFPythia8EvtGen.DAOD_TOPQ1.e4112_s2608_r7772_r7676_p2669.HtX4Tops_00-00-12_out.root/
user.mcasolin.302480.ProtosLHEFPythia8EvtGen.DAOD_TOPQ1.e4112_s2608_r7772_r7676_p2669.HtX4Tops_00-00-12_out.root/
user.mcasolin.302481.ProtosLHEFPythia8EvtGen.DAOD_TOPQ1.e4112_s2608_r7772_r7676_p2669.HtX4Tops_00-00-12_out.root/
user.mcasolin.302482.ProtosLHEFPythia8EvtGen.DAOD_TOPQ1.e4112_s2608_r7772_r7676_p2669.HtX4Tops_00-00-12_out.root/
user.mcasolin.302483.ProtosLHEFPythia8EvtGen.DAOD_TOPQ1.e4112_s2608_r7772_r7676_p2669.HtX4Tops_00-00-12_out.root/
user.mcasolin.302484.ProtosLHEFPythia8EvtGen.DAOD_TOPQ1.e4112_s2608_r7772_r7676_p2669.HtX4Tops_00-00-12_out.root/
user.mcasolin.302485.ProtosLHEFPythia8EvtGen.DAOD_TOPQ1.e4112_s2608_r7772_r7676_p2669.HtX4Tops_00-00-12_out.root/
user.mcasolin.302777.MadGraphPythia8EvtGen.DAOD_TOPQ1.e4476_s2726_r7725_r7676_p2669.HtX4Tops_00-00-12_out.root/
user.mcasolin.341541.aMcAtNloPythia8EvtGen.DAOD_TOPQ1.e4336_a766_a821_r7676_p2669.HtX4Tops_00-00-12_out.root/
user.mcasolin.341543.aMcAtNloPythia8EvtGen.DAOD_TOPQ1.e4336_a766_a821_r7676_p2669.HtX4Tops_00-00-12_out.root/
user.mcasolin.341545.aMcAtNloPythia8EvtGen.DAOD_TOPQ1.e4336_a766_a821_r7676_p2669.HtX4Tops_00-00-12_out.root/
user.mcasolin.341546.aMcAtNloPythia8EvtGen.DAOD_TOPQ1.e4336_a766_a821_r7676_p2669.HtX4Tops_00-00-12_out.root/
user.mcasolin.341547.aMcAtNloPythia8EvtGen.DAOD_TOPQ1.e4336_a766_a821_r7676_p2669.HtX4Tops_00-00-12_out.root/
user.mcasolin.341548.aMcAtNloPythia8EvtGen.DAOD_TOPQ1.e4336_a766_a821_r7676_p2669.HtX4Tops_00-00-12_out.root/
user.mcasolin.341549.aMcAtNloPythia8EvtGen.DAOD_TOPQ1.e4336_a766_a821_r7676_p2669.HtX4Tops_00-00-12_out.root/
user.mcasolin.341550.aMcAtNloPythia8EvtGen.DAOD_TOPQ1.e4336_a766_a821_r7676_p2669.HtX4Tops_00-00-12_out.root/
user.mcasolin.341551.aMcAtNloPythia8EvtGen.DAOD_TOPQ1.e4336_a766_a821_r7676_p2669.HtX4Tops_00-00-12_out.root/
user.mcasolin.341552.aMcAtNloPythia8EvtGen.DAOD_TOPQ1.e4336_a766_a821_r7676_p2669.HtX4Tops_00-00-12_out.root/
user.mcasolin.341553.aMcAtNloPythia8EvtGen.DAOD_TOPQ1.e4336_a766_a821_r7676_p2669.HtX4Tops_00-00-12_out.root/
user.mcasolin.341554.aMcAtNloPythia8EvtGen.DAOD_TOPQ1.e4336_a766_a821_r7676_p2669.HtX4Tops_00-00-12_out.root/
user.mcasolin.341555.aMcAtNloPythia8EvtGen.DAOD_TOPQ1.e4336_a766_a821_r7676_p2669.HtX4Tops_00-00-12_out.root/
user.mcasolin.341556.aMcAtNloPythia8EvtGen.DAOD_TOPQ1.e4336_a766_a821_r7676_p2669.HtX4Tops_00-00-12_out.root/
user.mcasolin.341557.aMcAtNloPythia8EvtGen.DAOD_TOPQ1.e4336_a766_a821_r7676_p2669.HtX4Tops_00-00-12_out.root/
user.mcasolin.343365.aMcAtNloPythia8EvtGen.DAOD_TOPQ1.e4706_s2726_r7772_r7676_p2669.HtX4Tops_00-00-12_out.root/
user.mcasolin.343366.aMcAtNloPythia8EvtGen.DAOD_TOPQ1.e4706_s2726_r7772_r7676_p2669.HtX4Tops_00-00-12_out.root/
user.mcasolin.343367.aMcAtNloPythia8EvtGen.DAOD_TOPQ1.e4706_s2726_r7772_r7676_p2669.HtX4Tops_00-00-12_out.root/
user.mcasolin.344066.MadGraphPythia8EvtGen.DAOD_TOPQ1.e5075_a766_a821_r7676_p2669.HtX4Tops_00-00-12_out.root/
user.mcasolin.344067.MadGraphPythia8EvtGen.DAOD_TOPQ1.e5075_a766_a821_r7676_p2669.HtX4Tops_00-00-12_out.root/
user.mcasolin.344068.MadGraphPythia8EvtGen.DAOD_TOPQ1.e5075_a766_a821_r7676_p2669.HtX4Tops_00-00-12_out.root/
user.mcasolin.344069.MadGraphPythia8EvtGen.DAOD_TOPQ1.e5075_a766_a821_r7676_p2669.HtX4Tops_00-00-12_out.root/
user.mcasolin.344070.MadGraphPythia8EvtGen.DAOD_TOPQ1.e5075_a766_a821_r7676_p2669.HtX4Tops_00-00-12_out.root/
user.mcasolin.344071.MadGraphPythia8EvtGen.DAOD_TOPQ1.e5075_a766_a821_r7676_p2669.HtX4Tops_00-00-12_out.root/
user.mcasolin.344072.MadGraphPythia8EvtGen.DAOD_TOPQ1.e5075_a766_a821_r7676_p2669.HtX4Tops_00-00-12_out.root/
user.mcasolin.344073.MadGraphPythia8EvtGen.DAOD_TOPQ1.e5075_a766_a821_r7676_p2669.HtX4Tops_00-00-12_out.root/
user.mcasolin.344074.MadGraphPythia8EvtGen.DAOD_TOPQ1.e5052_a766_a821_r7676_p2669.HtX4Tops_00-00-12_out.root/
user.mcasolin.344075.MadGraphPythia8EvtGen.DAOD_TOPQ1.e5052_a766_a821_r7676_p2669.HtX4Tops_00-00-12_out.root/
user.mcasolin.344076.MadGraphPythia8EvtGen.DAOD_TOPQ1.e5052_a766_a821_r7676_p2669.HtX4Tops_00-00-12_out.root/
user.mcasolin.344077.MadGraphPythia8EvtGen.DAOD_TOPQ1.e5052_a766_a821_r7676_p2669.HtX4Tops_00-00-12_out.root/
user.mcasolin.344078.MadGraphPythia8EvtGen.DAOD_TOPQ1.e5052_a766_a821_r7676_p2669.HtX4Tops_00-00-12_out.root/
user.mcasolin.344079.MadGraphPythia8EvtGen.DAOD_TOPQ1.e5052_a766_a821_r7676_p2669.HtX4Tops_00-00-12_out.root/
user.mcasolin.344080.MadGraphPythia8EvtGen.DAOD_TOPQ1.e5052_a766_a821_r7676_p2669.HtX4Tops_00-00-12_out.root/
user.mcasolin.344081.MadGraphPythia8EvtGen.DAOD_TOPQ1.e5052_a766_a821_r7676_p2669.HtX4Tops_00-00-12_out.root/
user.mcasolin.361091.Sherpa.DAOD_TOPQ1.e4607_s2726_r7725_r7676_p2669.HtX4Tops_00-00-12_out.root/
user.mcasolin.361092.Sherpa.DAOD_TOPQ1.e4607_s2726_r7725_r7676_p2669.HtX4Tops_00-00-12_out.root/
user.mcasolin.361093.Sherpa.DAOD_TOPQ1.e4607_s2726_r7725_r7676_p2669.HtX4Tops_00-00-12_out.root/
user.mcasolin.361094.Sherpa.DAOD_TOPQ1.e4607_s2726_r7725_r7676_p2669.HtX4Tops_00-00-12_out.root/
user.mcasolin.361095.Sherpa.DAOD_TOPQ1.e4607_s2726_r7772_r7676_p2669.HtX4Tops_00-00-12_out.root/
user.mcasolin.361096.Sherpa.DAOD_TOPQ1.e4607_s2726_r7725_r7676_p2669.HtX4Tops_00-00-12_out.root/
user.mcasolin.361097.Sherpa.DAOD_TOPQ1.e4607_s2726_r7772_r7676_p2669.HtX4Tops_00-00-12_out.root/
user.mcasolin.361300.Sherpa.DAOD_TOPQ1.e3651_s2608_s2183_r7725_r7676_p2669.HtX4Tops_00-00-12_out.root/
user.mcasolin.361301.Sherpa.DAOD_TOPQ1.e3651_s2586_s2174_r7772_r7676_p2669.HtX4Tops_00-00-12_out.root/
user.mcasolin.361302.Sherpa.DAOD_TOPQ1.e3651_s2586_s2174_r7772_r7676_p2669.HtX4Tops_00-00-12_out.root/
user.mcasolin.361303.Sherpa.DAOD_TOPQ1.e3651_s2586_s2174_r7772_r7676_p2669.HtX4Tops_00-00-12_out.root/
user.mcasolin.361304.Sherpa.DAOD_TOPQ1.e3651_s2586_s2174_r7772_r7676_p2669.HtX4Tops_00-00-12_out.root/
user.mcasolin.361305.Sherpa.DAOD_TOPQ1.e3651_s2586_s2174_r7772_r7676_p2669.HtX4Tops_00-00-12_out.root/
user.mcasolin.361306.Sherpa.DAOD_TOPQ1.e3651_s2586_s2174_r7772_r7676_p2669.HtX4Tops_00-00-12_out.root/
user.mcasolin.361307.Sherpa.DAOD_TOPQ1.e3651_s2586_s2174_r7772_r7676_p2669.HtX4Tops_00-00-12_out.root/
user.mcasolin.361308.Sherpa.DAOD_TOPQ1.e3651_s2586_s2174_r7772_r7676_p2669.HtX4Tops_00-00-12_out.root/
user.mcasolin.361309.Sherpa.DAOD_TOPQ1.e4133_s2608_s2183_r7725_r7676_p2669.HtX4Tops_00-00-12_out.root/
user.mcasolin.361310.Sherpa.DAOD_TOPQ1.e4133_s2608_s2183_r7725_r7676_p2669.HtX4Tops_00-00-12_out.root/
user.mcasolin.361311.Sherpa.DAOD_TOPQ1.e4133_s2608_s2183_r7725_r7676_p2669.HtX4Tops_00-00-12_out.root/
user.mcasolin.361312.Sherpa.DAOD_TOPQ1.e4133_s2608_s2183_r7725_r7676_p2669.HtX4Tops_00-00-12_out.root/
user.mcasolin.361313.Sherpa.DAOD_TOPQ1.e4133_s2608_s2183_r7725_r7676_p2669.HtX4Tops_00-00-12_out.root/
user.mcasolin.361314.Sherpa.DAOD_TOPQ1.e4133_s2608_s2183_r7725_r7676_p2669.HtX4Tops_00-00-12_out.root/
user.mcasolin.361315.Sherpa.DAOD_TOPQ1.e4133_s2608_s2183_r7725_r7676_p2669.HtX4Tops_00-00-12_out.root/
user.mcasolin.361316.Sherpa.DAOD_TOPQ1.e4133_s2608_s2183_r7725_r7676_p2669.HtX4Tops_00-00-12_out.root/
user.mcasolin.361317.Sherpa.DAOD_TOPQ1.e4133_s2608_s2183_r7725_r7676_p2669.HtX4Tops_00-00-12_out.root/
user.mcasolin.361318.Sherpa.DAOD_TOPQ1.e4133_s2608_s2183_r7725_r7676_p2669.HtX4Tops_00-00-12_out.root/
user.mcasolin.361319.Sherpa.DAOD_TOPQ1.e4133_s2608_s2183_r7725_r7676_p2669.HtX4Tops_00-00-12_out.root/
user.mcasolin.361320.Sherpa.DAOD_TOPQ1.e4133_s2608_s2183_r7725_r7676_p2669.HtX4Tops_00-00-12_out.root/
user.mcasolin.361321.Sherpa.DAOD_TOPQ1.e4133_s2608_s2183_r7725_r7676_p2669.HtX4Tops_00-00-12_out.root/
user.mcasolin.361322.Sherpa.DAOD_TOPQ1.e4133_s2608_s2183_r7725_r7676_p2669.HtX4Tops_00-00-12_out.root/
user.mcasolin.361323.Sherpa.DAOD_TOPQ1.e4133_s2608_s2183_r7725_r7676_p2669.HtX4Tops_00-00-12_out.root/
user.mcasolin.361324.Sherpa.DAOD_TOPQ1.e3651_s2608_s2183_r7725_r7676_p2669.HtX4Tops_00-00-12_out.root/
user.mcasolin.361325.Sherpa.DAOD_TOPQ1.e3651_s2586_s2174_r7772_r7676_p2669.HtX4Tops_00-00-12_out.root/
user.mcasolin.361326.Sherpa.DAOD_TOPQ1.e3651_s2608_s2183_r7772_r7676_p2669.HtX4Tops_00-00-12_out.root/
user.mcasolin.361327.Sherpa.DAOD_TOPQ1.e3651_s2586_s2174_r7772_r7676_p2669.HtX4Tops_00-00-12_out.root/
user.mcasolin.361328.Sherpa.DAOD_TOPQ1.e3651_s2586_s2174_r7772_r7676_p2669.HtX4Tops_00-00-12_out.root/
user.mcasolin.361329.Sherpa.DAOD_TOPQ1.e3651_s2586_s2174_r7772_r7676_p2669.HtX4Tops_00-00-12_out.root/
user.mcasolin.361330.Sherpa.DAOD_TOPQ1.e3651_s2586_s2174_r7772_r7676_p2669.HtX4Tops_00-00-12_out.root/
user.mcasolin.361331.Sherpa.DAOD_TOPQ1.e3651_s2586_s2174_r7772_r7676_p2669.HtX4Tops_00-00-12_out.root/
user.mcasolin.361332.Sherpa.DAOD_TOPQ1.e3651_s2586_s2174_r7772_r7676_p2669.HtX4Tops_00-00-12_out.root/
user.mcasolin.361333.Sherpa.DAOD_TOPQ1.e4133_s2608_s2183_r7725_r7676_p2669.HtX4Tops_00-00-12_out.root/
user.mcasolin.361334.Sherpa.DAOD_TOPQ1.e4133_s2608_s2183_r7725_r7676_p2669.HtX4Tops_00-00-12_out.root/
user.mcasolin.361335.Sherpa.DAOD_TOPQ1.e4133_s2608_s2183_r7725_r7676_p2669.HtX4Tops_00-00-12_out.root/
user.mcasolin.361336.Sherpa.DAOD_TOPQ1.e4133_s2608_s2183_r7725_r7676_p2669.HtX4Tops_00-00-12_out.root/
user.mcasolin.361337.Sherpa.DAOD_TOPQ1.e4133_s2608_s2183_r7725_r7676_p2669.HtX4Tops_00-00-12_out.root/
user.mcasolin.361338.Sherpa.DAOD_TOPQ1.e4133_s2608_s2183_r7725_r7676_p2669.HtX4Tops_00-00-12_out.root/
user.mcasolin.361339.Sherpa.DAOD_TOPQ1.e4133_s2608_s2183_r7725_r7676_p2669.HtX4Tops_00-00-12_out.root/
user.mcasolin.361340.Sherpa.DAOD_TOPQ1.e4133_s2608_s2183_r7725_r7676_p2669.HtX4Tops_00-00-12_out.root/
user.mcasolin.361341.Sherpa.DAOD_TOPQ1.e4133_s2608_s2183_r7725_r7676_p2669.HtX4Tops_00-00-12_out.root/
user.mcasolin.361342.Sherpa.DAOD_TOPQ1.e4133_s2608_s2183_r7725_r7676_p2669.HtX4Tops_00-00-12_out.root/
user.mcasolin.361343.Sherpa.DAOD_TOPQ1.e4133_s2608_s2183_r7725_r7676_p2669.HtX4Tops_00-00-12_out.root/
user.mcasolin.361344.Sherpa.DAOD_TOPQ1.e4133_s2608_s2183_r7725_r7676_p2669.HtX4Tops_00-00-12_out.root/
user.mcasolin.361345.Sherpa.DAOD_TOPQ1.e4133_s2608_s2183_r7725_r7676_p2669.HtX4Tops_00-00-12_out.root/
user.mcasolin.361346.Sherpa.DAOD_TOPQ1.e4133_s2608_s2183_r7725_r7676_p2669.HtX4Tops_00-00-12_out.root/
user.mcasolin.361347.Sherpa.DAOD_TOPQ1.e4133_s2608_s2183_r7725_r7676_p2669.HtX4Tops_00-00-12_out.root/
user.mcasolin.361348.Sherpa.DAOD_TOPQ1.e3733_s2608_s2183_r7725_r7676_p2669.HtX4Tops_00-00-12_out.root/
user.mcasolin.361349.Sherpa.DAOD_TOPQ1.e3733_s2608_s2183_r7725_r7676_p2669.HtX4Tops_00-00-12_out.root/
user.mcasolin.361350.Sherpa.DAOD_TOPQ1.e3733_s2608_s2183_r7725_r7676_p2669.HtX4Tops_00-00-12_out.root/
user.mcasolin.361351.Sherpa.DAOD_TOPQ1.e3733_s2608_s2183_r7725_r7676_p2669.HtX4Tops_00-00-12_out.root/
user.mcasolin.361352.Sherpa.DAOD_TOPQ1.e3733_s2608_s2183_r7725_r7676_p2669.HtX4Tops_00-00-12_out.root/
user.mcasolin.361353.Sherpa.DAOD_TOPQ1.e3733_s2608_s2183_r7725_r7676_p2669.HtX4Tops_00-00-12_out.root/
user.mcasolin.361354.Sherpa.DAOD_TOPQ1.e3733_s2608_s2183_r7725_r7676_p2669.HtX4Tops_00-00-12_out.root/
user.mcasolin.361355.Sherpa.DAOD_TOPQ1.e3733_s2608_s2183_r7725_r7676_p2669.HtX4Tops_00-00-12_out.root/
user.mcasolin.361356.Sherpa.DAOD_TOPQ1.e3733_s2608_s2183_r7725_r7676_p2669.HtX4Tops_00-00-12_out.root/
user.mcasolin.361357.Sherpa.DAOD_TOPQ1.e4133_s2608_s2183_r7725_r7676_p2669.HtX4Tops_00-00-12_out.root/
user.mcasolin.361358.Sherpa.DAOD_TOPQ1.e4133_s2608_s2183_r7725_r7676_p2669.HtX4Tops_00-00-12_out.root/
user.mcasolin.361359.Sherpa.DAOD_TOPQ1.e4133_s2608_s2183_r7725_r7676_p2669.HtX4Tops_00-00-12_out.root/
user.mcasolin.361360.Sherpa.DAOD_TOPQ1.e4133_s2608_s2183_r7725_r7676_p2669.HtX4Tops_00-00-12_out.root/
user.mcasolin.361361.Sherpa.DAOD_TOPQ1.e4133_s2608_s2183_r7725_r7676_p2669.HtX4Tops_00-00-12_out.root/
user.mcasolin.361362.Sherpa.DAOD_TOPQ1.e4133_s2608_s2183_r7725_r7676_p2669.HtX4Tops_00-00-12_out.root/
user.mcasolin.361363.Sherpa.DAOD_TOPQ1.e4133_s2608_s2183_r7725_r7676_p2669.HtX4Tops_00-00-12_out.root/
user.mcasolin.361364.Sherpa.DAOD_TOPQ1.e4133_s2608_s2183_r7725_r7676_p2669.HtX4Tops_00-00-12_out.root/
user.mcasolin.361365.Sherpa.DAOD_TOPQ1.e4133_s2608_s2183_r7725_r7676_p2669.HtX4Tops_00-00-12_out.root/
user.mcasolin.361366.Sherpa.DAOD_TOPQ1.e4133_s2608_s2183_r7725_r7676_p2669.HtX4Tops_00-00-12_out.root/
user.mcasolin.361367.Sherpa.DAOD_TOPQ1.e4133_s2608_s2183_r7725_r7676_p2669.HtX4Tops_00-00-12_out.root/
user.mcasolin.361368.Sherpa.DAOD_TOPQ1.e4133_s2608_s2183_r7725_r7676_p2669.HtX4Tops_00-00-12_out.root/
user.mcasolin.361369.Sherpa.DAOD_TOPQ1.e4133_s2608_s2183_r7725_r7676_p2669.HtX4Tops_00-00-12_out.root/
user.mcasolin.361370.Sherpa.DAOD_TOPQ1.e4133_s2608_s2183_r7725_r7676_p2669.HtX4Tops_00-00-12_out.root/
user.mcasolin.361371.Sherpa.DAOD_TOPQ1.e4133_s2608_s2183_r7725_r7676_p2669.HtX4Tops_00-00-12_out.root/
user.mcasolin.361372.Sherpa.DAOD_TOPQ1.e3651_s2586_s2174_r7772_r7676_p2669.HtX4Tops_00-00-12_out.root/
user.mcasolin.361373.Sherpa.DAOD_TOPQ1.e3651_s2586_s2174_r7772_r7676_p2669.HtX4Tops_00-00-12_out.root/
user.mcasolin.361374.Sherpa.DAOD_TOPQ1.e3651_s2586_s2174_r7772_r7676_p2669.HtX4Tops_00-00-12_out.root/
user.mcasolin.361375.Sherpa.DAOD_TOPQ1.e3651_s2586_s2174_r7772_r7676_p2669.HtX4Tops_00-00-12_out.root/
user.mcasolin.361376.Sherpa.DAOD_TOPQ1.e3651_s2586_s2174_r7772_r7676_p2669.HtX4Tops_00-00-12_out.root/
user.mcasolin.361377.Sherpa.DAOD_TOPQ1.e3651_s2586_s2174_r7772_r7676_p2669.HtX4Tops_00-00-12_out.root/
user.mcasolin.361378.Sherpa.DAOD_TOPQ1.e3651_s2586_s2174_r7772_r7676_p2669.HtX4Tops_00-00-12_out.root/
user.mcasolin.361379.Sherpa.DAOD_TOPQ1.e3651_s2586_s2174_r7772_r7676_p2669.HtX4Tops_00-00-12_out.root/
user.mcasolin.361380.Sherpa.DAOD_TOPQ1.e3651_s2586_s2174_r7772_r7676_p2669.HtX4Tops_00-00-12_out.root/
user.mcasolin.361381.Sherpa.DAOD_TOPQ1.e4133_s2608_s2183_r7772_r7676_p2669.HtX4Tops_00-00-12_out.root/
user.mcasolin.361382.Sherpa.DAOD_TOPQ1.e4133_s2608_s2183_r7772_r7676_p2669.HtX4Tops_00-00-12_out.root/
user.mcasolin.361383.Sherpa.DAOD_TOPQ1.e4133_s2608_s2183_r7772_r7676_p2669.HtX4Tops_00-00-12_out.root/
user.mcasolin.361384.Sherpa.DAOD_TOPQ1.e4133_s2608_s2183_r7772_r7676_p2669.HtX4Tops_00-00-12_out.root/
user.mcasolin.361385.Sherpa.DAOD_TOPQ1.e4133_s2608_s2183_r7772_r7676_p2669.HtX4Tops_00-00-12_out.root/
user.mcasolin.361386.Sherpa.DAOD_TOPQ1.e4133_s2608_s2183_r7772_r7676_p2669.HtX4Tops_00-00-12_out.root/
user.mcasolin.361387.Sherpa.DAOD_TOPQ1.e4133_s2608_s2183_r7772_r7676_p2669.HtX4Tops_00-00-12_out.root/
user.mcasolin.361388.Sherpa.DAOD_TOPQ1.e4133_s2608_s2183_r7772_r7676_p2669.HtX4Tops_00-00-12_out.root/
user.mcasolin.361389.Sherpa.DAOD_TOPQ1.e4133_s2608_s2183_r7772_r7676_p2669.HtX4Tops_00-00-12_out.root/
user.mcasolin.361390.Sherpa.DAOD_TOPQ1.e4133_s2608_s2183_r7772_r7676_p2669.HtX4Tops_00-00-12_out.root/
user.mcasolin.361391.Sherpa.DAOD_TOPQ1.e4133_s2608_s2183_r7772_r7676_p2669.HtX4Tops_00-00-12_out.root/
user.mcasolin.361392.Sherpa.DAOD_TOPQ1.e4133_s2608_s2183_r7772_r7676_p2669.HtX4Tops_00-00-12_out.root/
user.mcasolin.361393.Sherpa.DAOD_TOPQ1.e4133_s2608_s2183_r7772_r7676_p2669.HtX4Tops_00-00-12_out.root/
user.mcasolin.361394.Sherpa.DAOD_TOPQ1.e4133_s2608_s2183_r7772_r7676_p2669.HtX4Tops_00-00-12_out.root/
user.mcasolin.361395.Sherpa.DAOD_TOPQ1.e4133_s2608_s2183_r7772_r7676_p2669.HtX4Tops_00-00-12_out.root/
user.mcasolin.361396.Sherpa.DAOD_TOPQ1.e3651_s2586_s2174_r7772_r7676_p2669.HtX4Tops_00-00-12_out.root/
user.mcasolin.361397.Sherpa.DAOD_TOPQ1.e3651_s2586_s2174_r7772_r7676_p2669.HtX4Tops_00-00-12_out.root/
user.mcasolin.361398.Sherpa.DAOD_TOPQ1.e3651_s2586_s2174_r7772_r7676_p2669.HtX4Tops_00-00-12_out.root/
user.mcasolin.361399.Sherpa.DAOD_TOPQ1.e3651_s2586_s2174_r7772_r7676_p2669.HtX4Tops_00-00-12_out.root/
user.mcasolin.361400.Sherpa.DAOD_TOPQ1.e3651_s2586_s2174_r7772_r7676_p2669.HtX4Tops_00-00-12_out.root/
user.mcasolin.361401.Sherpa.DAOD_TOPQ1.e3651_s2586_s2174_r7772_r7676_p2669.HtX4Tops_00-00-12_out.root/
user.mcasolin.361402.Sherpa.DAOD_TOPQ1.e3651_s2586_s2174_r7772_r7676_p2669.HtX4Tops_00-00-12_out.root/
user.mcasolin.361403.Sherpa.DAOD_TOPQ1.e3651_s2586_s2174_r7772_r7676_p2669.HtX4Tops_00-00-12_out.root/
user.mcasolin.361404.Sherpa.DAOD_TOPQ1.e3651_s2586_s2174_r7772_r7676_p2669.HtX4Tops_00-00-12_out.root/
user.mcasolin.361405.Sherpa.DAOD_TOPQ1.e4133_s2608_s2183_r7772_r7676_p2669.HtX4Tops_00-00-12_out.root/
user.mcasolin.361406.Sherpa.DAOD_TOPQ1.e4133_s2608_s2183_r7772_r7676_p2669.HtX4Tops_00-00-12_out.root/
user.mcasolin.361407.Sherpa.DAOD_TOPQ1.e4133_s2608_s2183_r7772_r7676_p2669.HtX4Tops_00-00-12_out.root/
user.mcasolin.361408.Sherpa.DAOD_TOPQ1.e4133_s2608_s2183_r7772_r7676_p2669.HtX4Tops_00-00-12_out.root/
user.mcasolin.361409.Sherpa.DAOD_TOPQ1.e4133_s2608_s2183_r7772_r7676_p2669.HtX4Tops_00-00-12_out.root/
user.mcasolin.361410.Sherpa.DAOD_TOPQ1.e4133_s2608_s2183_r7772_r7676_p2669.HtX4Tops_00-00-12_out.root/
user.mcasolin.361411.Sherpa.DAOD_TOPQ1.e4133_s2608_s2183_r7772_r7676_p2669.HtX4Tops_00-00-12_out.root/
user.mcasolin.361412.Sherpa.DAOD_TOPQ1.e4133_s2608_s2183_r7772_r7676_p2669.HtX4Tops_00-00-12_out.root/
user.mcasolin.361413.Sherpa.DAOD_TOPQ1.e4133_s2608_s2183_r7772_r7676_p2669.HtX4Tops_00-00-12_out.root/
user.mcasolin.361414.Sherpa.DAOD_TOPQ1.e4133_s2608_s2183_r7772_r7676_p2669.HtX4Tops_00-00-12_out.root/
user.mcasolin.361415.Sherpa.DAOD_TOPQ1.e4133_s2608_s2183_r7772_r7676_p2669.HtX4Tops_00-00-12_out.root/
user.mcasolin.361416.Sherpa.DAOD_TOPQ1.e4133_s2608_s2183_r7772_r7676_p2669.HtX4Tops_00-00-12_out.root/
user.mcasolin.361417.Sherpa.DAOD_TOPQ1.e4133_s2608_s2183_r7772_r7676_p2669.HtX4Tops_00-00-12_out.root/
user.mcasolin.361418.Sherpa.DAOD_TOPQ1.e4133_s2608_s2183_r7772_r7676_p2669.HtX4Tops_00-00-12_out.root/
user.mcasolin.361419.Sherpa.DAOD_TOPQ1.e4133_s2608_s2183_r7772_r7676_p2669.HtX4Tops_00-00-12_out.root/
user.mcasolin.361420.Sherpa.DAOD_TOPQ1.e3733_s2608_s2183_r7772_r7676_p2669.HtX4Tops_00-00-12_out.root/
user.mcasolin.361421.Sherpa.DAOD_TOPQ1.e3733_s2608_s2183_r7772_r7676_p2669.HtX4Tops_00-00-12_out.root/
user.mcasolin.361422.Sherpa.DAOD_TOPQ1.e3733_s2608_s2183_r7772_r7676_p2669.HtX4Tops_00-00-12_out.root/
user.mcasolin.361423.Sherpa.DAOD_TOPQ1.e3733_s2608_s2183_r7772_r7676_p2669.HtX4Tops_00-00-12_out.root/
user.mcasolin.361424.Sherpa.DAOD_TOPQ1.e3733_s2608_s2183_r7772_r7676_p2669.HtX4Tops_00-00-12_out.root/
user.mcasolin.361425.Sherpa.DAOD_TOPQ1.e3733_s2608_s2183_r7772_r7676_p2669.HtX4Tops_00-00-12_out.root/
user.mcasolin.361426.Sherpa.DAOD_TOPQ1.e3733_s2608_s2183_r7772_r7676_p2669.HtX4Tops_00-00-12_out.root/
user.mcasolin.361427.Sherpa.DAOD_TOPQ1.e3733_s2608_s2183_r7772_r7676_p2669.HtX4Tops_00-00-12_out.root/
user.mcasolin.361428.Sherpa.DAOD_TOPQ1.e3733_s2608_s2183_r7772_r7676_p2669.HtX4Tops_00-00-12_out.root/
user.mcasolin.361429.Sherpa.DAOD_TOPQ1.e4133_s2608_s2183_r7772_r7676_p2669.HtX4Tops_00-00-12_out.root/
user.mcasolin.361430.Sherpa.DAOD_TOPQ1.e4133_s2608_s2183_r7772_r7676_p2669.HtX4Tops_00-00-12_out.root/
user.mcasolin.361431.Sherpa.DAOD_TOPQ1.e4133_s2608_s2183_r7772_r7676_p2669.HtX4Tops_00-00-12_out.root/
user.mcasolin.361432.Sherpa.DAOD_TOPQ1.e4133_s2608_s2183_r7772_r7676_p2669.HtX4Tops_00-00-12_out.root/
user.mcasolin.361433.Sherpa.DAOD_TOPQ1.e4133_s2608_s2183_r7772_r7676_p2669.HtX4Tops_00-00-12_out.root/
user.mcasolin.361434.Sherpa.DAOD_TOPQ1.e4133_s2608_s2183_r7772_r7676_p2669.HtX4Tops_00-00-12_out.root/
user.mcasolin.361435.Sherpa.DAOD_TOPQ1.e4133_s2608_s2183_r7772_r7676_p2669.HtX4Tops_00-00-12_out.root/
user.mcasolin.361436.Sherpa.DAOD_TOPQ1.e4133_s2608_s2183_r7772_r7676_p2669.HtX4Tops_00-00-12_out.root/
user.mcasolin.361437.Sherpa.DAOD_TOPQ1.e4133_s2608_s2183_r7772_r7676_p2669.HtX4Tops_00-00-12_out.root/
user.mcasolin.361438.Sherpa.DAOD_TOPQ1.e4133_s2608_s2183_r7772_r7676_p2669.HtX4Tops_00-00-12_out.root/
user.mcasolin.361439.Sherpa.DAOD_TOPQ1.e4133_s2608_s2183_r7772_r7676_p2669.HtX4Tops_00-00-12_out.root/
user.mcasolin.361440.Sherpa.DAOD_TOPQ1.e4133_s2608_s2183_r7772_r7676_p2669.HtX4Tops_00-00-12_out.root/
user.mcasolin.361441.Sherpa.DAOD_TOPQ1.e4133_s2608_s2183_r7772_r7676_p2669.HtX4Tops_00-00-12_out.root/
user.mcasolin.361442.Sherpa.DAOD_TOPQ1.e4133_s2608_s2183_r7772_r7676_p2669.HtX4Tops_00-00-12_out.root/
user.mcasolin.361443.Sherpa.DAOD_TOPQ1.e4133_s2608_s2183_r7772_r7676_p2669.HtX4Tops_00-00-12_out.root/
user.mcasolin.363102.Sherpa.DAOD_TOPQ1.e4742_s2726_r7725_r7676_p2669.HtX4Tops_00-00-12_out.root/
user.mcasolin.363103.Sherpa.DAOD_TOPQ1.e4742_s2726_r7725_r7676_p2669.HtX4Tops_00-00-12_out.root/
user.mcasolin.363104.Sherpa.DAOD_TOPQ1.e4792_s2726_r7725_r7676_p2669.HtX4Tops_00-00-12_out.root/
user.mcasolin.363105.Sherpa.DAOD_TOPQ1.e4666_s2726_r7725_r7676_p2669.HtX4Tops_00-00-12_out.root/
user.mcasolin.363106.Sherpa.DAOD_TOPQ1.e4666_s2726_r7725_r7676_p2669.HtX4Tops_00-00-12_out.root/
user.mcasolin.363107.Sherpa.DAOD_TOPQ1.e4742_s2726_r7725_r7676_p2669.HtX4Tops_00-00-12_out.root/
user.mcasolin.363108.Sherpa.DAOD_TOPQ1.e4666_s2726_r7725_r7676_p2669.HtX4Tops_00-00-12_out.root/
user.mcasolin.363109.Sherpa.DAOD_TOPQ1.e4792_s2726_r7725_r7676_p2669.HtX4Tops_00-00-12_out.root/
user.mcasolin.363110.Sherpa.DAOD_TOPQ1.e4792_s2726_r7725_r7676_p2669.HtX4Tops_00-00-12_out.root/
user.mcasolin.363111.Sherpa.DAOD_TOPQ1.e4666_s2726_r7725_r7676_p2669.HtX4Tops_00-00-12_out.root/
user.mcasolin.363112.Sherpa.DAOD_TOPQ1.e4742_s2726_r7725_r7676_p2669.HtX4Tops_00-00-12_out.root/
user.mcasolin.363113.Sherpa.DAOD_TOPQ1.e4742_s2726_r7725_r7676_p2669.HtX4Tops_00-00-12_out.root/
user.mcasolin.363114.Sherpa.DAOD_TOPQ1.e4742_s2726_r7725_r7676_p2669.HtX4Tops_00-00-12_out.root/
user.mcasolin.363115.Sherpa.DAOD_TOPQ1.e4792_s2726_r7725_r7676_p2669.HtX4Tops_00-00-12_out.root/
user.mcasolin.363116.Sherpa.DAOD_TOPQ1.e4742_s2726_r7725_r7676_p2669.HtX4Tops_00-00-12_out.root/
user.mcasolin.363117.Sherpa.DAOD_TOPQ1.e4666_s2726_r7725_r7676_p2669.HtX4Tops_00-00-12_out.root/
user.mcasolin.363118.Sherpa.DAOD_TOPQ1.e4666_s2726_r7725_r7676_p2669.HtX4Tops_00-00-12_out.root/
user.mcasolin.363119.Sherpa.DAOD_TOPQ1.e4666_s2726_r7725_r7676_p2669.HtX4Tops_00-00-12_out.root/
user.mcasolin.363120.Sherpa.DAOD_TOPQ1.e4690_s2726_r7725_r7676_p2669.HtX4Tops_00-00-12_out.root/
user.mcasolin.363121.Sherpa.DAOD_TOPQ1.e4690_s2726_r7725_r7676_p2669.HtX4Tops_00-00-12_out.root/
user.mcasolin.363331.Sherpa.DAOD_TOPQ1.e4709_s2726_r7725_r7676_p2669.HtX4Tops_00-00-12_out.root/
user.mcasolin.363332.Sherpa.DAOD_TOPQ1.e4709_s2726_r7725_r7676_p2669.HtX4Tops_00-00-12_out.root/
user.mcasolin.363333.Sherpa.DAOD_TOPQ1.e4709_s2726_r7725_r7676_p2669.HtX4Tops_00-00-12_out.root/
user.mcasolin.363334.Sherpa.DAOD_TOPQ1.e4709_s2726_r7725_r7676_p2669.HtX4Tops_00-00-12_out.root/
user.mcasolin.363335.Sherpa.DAOD_TOPQ1.e4709_s2726_r7725_r7676_p2669.HtX4Tops_00-00-12_out.root/
user.mcasolin.363336.Sherpa.DAOD_TOPQ1.e4779_s2726_r7725_r7676_p2669.HtX4Tops_00-00-12_out.root/
user.mcasolin.363337.Sherpa.DAOD_TOPQ1.e4709_s2726_r7725_r7676_p2669.HtX4Tops_00-00-12_out.root/
user.mcasolin.363338.Sherpa.DAOD_TOPQ1.e4709_s2726_r7725_r7676_p2669.HtX4Tops_00-00-12_out.root/
user.mcasolin.363339.Sherpa.DAOD_TOPQ1.e4709_s2726_r7725_r7676_p2669.HtX4Tops_00-00-12_out.root/
user.mcasolin.363340.Sherpa.DAOD_TOPQ1.e4709_s2726_r7725_r7676_p2669.HtX4Tops_00-00-12_out.root/
user.mcasolin.363341.Sherpa.DAOD_TOPQ1.e4779_s2726_r7725_r7676_p2669.HtX4Tops_00-00-12_out.root/
user.mcasolin.363342.Sherpa.DAOD_TOPQ1.e4779_s2726_r7725_r7676_p2669.HtX4Tops_00-00-12_out.root/
user.mcasolin.363343.Sherpa.DAOD_TOPQ1.e4709_s2726_r7725_r7676_p2669.HtX4Tops_00-00-12_out.root/
user.mcasolin.363344.Sherpa.DAOD_TOPQ1.e4709_s2726_r7725_r7676_p2669.HtX4Tops_00-00-12_out.root/
user.mcasolin.363345.Sherpa.DAOD_TOPQ1.e4779_s2726_r7725_r7676_p2669.HtX4Tops_00-00-12_out.root/
user.mcasolin.363346.Sherpa.DAOD_TOPQ1.e4709_s2726_r7725_r7676_p2669.HtX4Tops_00-00-12_out.root/
user.mcasolin.363347.Sherpa.DAOD_TOPQ1.e4709_s2726_r7725_r7676_p2669.HtX4Tops_00-00-12_out.root/
user.mcasolin.363348.Sherpa.DAOD_TOPQ1.e4779_s2726_r7725_r7676_p2669.HtX4Tops_00-00-12_out.root/
user.mcasolin.363349.Sherpa.DAOD_TOPQ1.e4709_s2726_r7725_r7676_p2669.HtX4Tops_00-00-12_out.root/
user.mcasolin.363350.Sherpa.DAOD_TOPQ1.e4709_s2726_r7725_r7676_p2669.HtX4Tops_00-00-12_out.root/
user.mcasolin.363351.Sherpa.DAOD_TOPQ1.e4779_s2726_r7725_r7676_p2669.HtX4Tops_00-00-12_out.root/
user.mcasolin.363352.Sherpa.DAOD_TOPQ1.e4709_s2726_r7725_r7676_p2669.HtX4Tops_00-00-12_out.root/
user.mcasolin.363353.Sherpa.DAOD_TOPQ1.e4709_s2726_r7725_r7676_p2669.HtX4Tops_00-00-12_out.root/
user.mcasolin.363354.Sherpa.DAOD_TOPQ1.e4709_s2726_r7725_r7676_p2669.HtX4Tops_00-00-12_out.root/
user.mcasolin.363361.Sherpa.DAOD_TOPQ1.e4689_s2726_r7725_r7676_p2669.HtX4Tops_00-00-12_out.root/
user.mcasolin.363362.Sherpa.DAOD_TOPQ1.e4689_s2726_r7725_r7676_p2669.HtX4Tops_00-00-12_out.root/
user.mcasolin.363363.Sherpa.DAOD_TOPQ1.e4743_s2726_r7725_r7676_p2669.HtX4Tops_00-00-12_out.root/
user.mcasolin.363364.Sherpa.DAOD_TOPQ1.e4716_s2726_r7725_r7676_p2669.HtX4Tops_00-00-12_out.root/
user.mcasolin.363365.Sherpa.DAOD_TOPQ1.e4716_s2726_r7725_r7676_p2669.HtX4Tops_00-00-12_out.root/
user.mcasolin.363366.Sherpa.DAOD_TOPQ1.e4716_s2726_r7725_r7676_p2669.HtX4Tops_00-00-12_out.root/
user.mcasolin.363367.Sherpa.DAOD_TOPQ1.e4716_s2726_r7725_r7676_p2669.HtX4Tops_00-00-12_out.root/
user.mcasolin.363368.Sherpa.DAOD_TOPQ1.e4716_s2726_r7725_r7676_p2669.HtX4Tops_00-00-12_out.root/
user.mcasolin.363369.Sherpa.DAOD_TOPQ1.e4716_s2726_r7725_r7676_p2669.HtX4Tops_00-00-12_out.root/
user.mcasolin.363370.Sherpa.DAOD_TOPQ1.e4716_s2726_r7725_r7676_p2669.HtX4Tops_00-00-12_out.root/
user.mcasolin.363371.Sherpa.DAOD_TOPQ1.e4716_s2726_r7725_r7676_p2669.HtX4Tops_00-00-12_out.root/
user.mcasolin.363372.Sherpa.DAOD_TOPQ1.e4716_s2726_r7725_r7676_p2669.HtX4Tops_00-00-12_out.root/
user.mcasolin.363373.Sherpa.DAOD_TOPQ1.e4716_s2726_r7725_r7676_p2669.HtX4Tops_00-00-12_out.root/
user.mcasolin.363374.Sherpa.DAOD_TOPQ1.e4716_s2726_r7725_r7676_p2669.HtX4Tops_00-00-12_out.root/
user.mcasolin.363375.Sherpa.DAOD_TOPQ1.e4772_s2726_r7725_r7676_p2669.HtX4Tops_00-00-12_out.root/
user.mcasolin.363376.Sherpa.DAOD_TOPQ1.e4716_s2726_r7725_r7676_p2669.HtX4Tops_00-00-12_out.root/
user.mcasolin.363377.Sherpa.DAOD_TOPQ1.e4716_s2726_r7725_r7676_p2669.HtX4Tops_00-00-12_out.root/
user.mcasolin.363378.Sherpa.DAOD_TOPQ1.e4772_s2726_r7725_r7676_p2669.HtX4Tops_00-00-12_out.root/
user.mcasolin.363379.Sherpa.DAOD_TOPQ1.e4716_s2726_r7725_r7676_p2669.HtX4Tops_00-00-12_out.root/
user.mcasolin.363380.Sherpa.DAOD_TOPQ1.e4716_s2726_r7725_r7676_p2669.HtX4Tops_00-00-12_out.root/
user.mcasolin.363381.Sherpa.DAOD_TOPQ1.e4716_s2726_r7725_r7676_p2669.HtX4Tops_00-00-12_out.root/
user.mcasolin.363382.Sherpa.DAOD_TOPQ1.e4716_s2726_r7725_r7676_p2669.HtX4Tops_00-00-12_out.root/
user.mcasolin.363383.Sherpa.DAOD_TOPQ1.e4716_s2726_r7725_r7676_p2669.HtX4Tops_00-00-12_out.root/
user.mcasolin.363384.Sherpa.DAOD_TOPQ1.e4716_s2726_r7725_r7676_p2669.HtX4Tops_00-00-12_out.root/
user.mcasolin.363385.Sherpa.DAOD_TOPQ1.e4716_s2726_r7725_r7676_p2669.HtX4Tops_00-00-12_out.root/
user.mcasolin.363386.Sherpa.DAOD_TOPQ1.e4716_s2726_r7725_r7676_p2669.HtX4Tops_00-00-12_out.root/
user.mcasolin.363387.Sherpa.DAOD_TOPQ1.e4716_s2726_r7725_r7676_p2669.HtX4Tops_00-00-12_out.root/
user.mcasolin.363388.Sherpa.DAOD_TOPQ1.e4716_s2726_r7725_r7676_p2669.HtX4Tops_00-00-12_out.root/
user.mcasolin.363389.Sherpa.DAOD_TOPQ1.e4716_s2726_r7725_r7676_p2669.HtX4Tops_00-00-12_out.root/
user.mcasolin.363390.Sherpa.DAOD_TOPQ1.e4716_s2726_r7725_r7676_p2669.HtX4Tops_00-00-12_out.root/
user.mcasolin.363391.Sherpa.DAOD_TOPQ1.e4716_s2726_r7725_r7676_p2669.HtX4Tops_00-00-12_out.root/
user.mcasolin.363392.Sherpa.DAOD_TOPQ1.e4772_s2726_r7725_r7676_p2669.HtX4Tops_00-00-12_out.root/
user.mcasolin.363393.Sherpa.DAOD_TOPQ1.e4716_s2726_r7725_r7676_p2669.HtX4Tops_00-00-12_out.root/
user.mcasolin.363394.Sherpa.DAOD_TOPQ1.e4716_s2726_r7725_r7676_p2669.HtX4Tops_00-00-12_out.root/
user.mcasolin.363395.Sherpa.DAOD_TOPQ1.e4716_s2726_r7725_r7676_p2669.HtX4Tops_00-00-12_out.root/
user.mcasolin.363396.Sherpa.DAOD_TOPQ1.e4772_s2726_r7725_r7676_p2669.HtX4Tops_00-00-12_out.root/
user.mcasolin.363397.Sherpa.DAOD_TOPQ1.e4716_s2726_r7725_r7676_p2669.HtX4Tops_00-00-12_out.root/
user.mcasolin.363398.Sherpa.DAOD_TOPQ1.e4716_s2726_r7725_r7676_p2669.HtX4Tops_00-00-12_out.root/
user.mcasolin.363399.Sherpa.DAOD_TOPQ1.e4772_s2726_r7725_r7676_p2669.HtX4Tops_00-00-12_out.root/
user.mcasolin.363400.Sherpa.DAOD_TOPQ1.e4716_s2726_r7725_r7676_p2669.HtX4Tops_00-00-12_out.root/
user.mcasolin.363401.Sherpa.DAOD_TOPQ1.e4716_s2726_r7725_r7676_p2669.HtX4Tops_00-00-12_out.root/
user.mcasolin.363402.Sherpa.DAOD_TOPQ1.e4716_s2726_r7725_r7676_p2669.HtX4Tops_00-00-12_out.root/
user.mcasolin.363403.Sherpa.DAOD_TOPQ1.e4716_s2726_r7725_r7676_p2669.HtX4Tops_00-00-12_out.root/
user.mcasolin.363404.Sherpa.DAOD_TOPQ1.e4716_s2726_r7725_r7676_p2669.HtX4Tops_00-00-12_out.root/
user.mcasolin.363405.Sherpa.DAOD_TOPQ1.e4716_s2726_r7725_r7676_p2669.HtX4Tops_00-00-12_out.root/
user.mcasolin.363406.Sherpa.DAOD_TOPQ1.e4716_s2726_r7725_r7676_p2669.HtX4Tops_00-00-12_out.root/
user.mcasolin.363407.Sherpa.DAOD_TOPQ1.e4716_s2726_r7725_r7676_p2669.HtX4Tops_00-00-12_out.root/
user.mcasolin.363408.Sherpa.DAOD_TOPQ1.e4772_s2726_r7725_r7676_p2669.HtX4Tops_00-00-12_out.root/
user.mcasolin.363409.Sherpa.DAOD_TOPQ1.e4716_s2726_r7725_r7676_p2669.HtX4Tops_00-00-12_out.root/
user.mcasolin.363410.Sherpa.DAOD_TOPQ1.e4716_s2726_r7725_r7676_p2669.HtX4Tops_00-00-12_out.root/
user.mcasolin.363411.Sherpa.DAOD_TOPQ1.e4772_s2726_r7725_r7676_p2669.HtX4Tops_00-00-12_out.root/
user.mcasolin.363412.Sherpa.DAOD_TOPQ1.e4716_s2726_r7772_r7676_p2669.HtX4Tops_00-00-12_out.root/
user.mcasolin.363413.Sherpa.DAOD_TOPQ1.e4716_s2726_r7772_r7676_p2669.HtX4Tops_00-00-12_out.root/
user.mcasolin.363414.Sherpa.DAOD_TOPQ1.e4716_s2726_r7772_r7676_p2669.HtX4Tops_00-00-12_out.root/
user.mcasolin.363415.Sherpa.DAOD_TOPQ1.e4716_s2726_r7772_r7676_p2669.HtX4Tops_00-00-12_out.root/
user.mcasolin.363416.Sherpa.DAOD_TOPQ1.e4716_s2726_r7772_r7676_p2669.HtX4Tops_00-00-12_out.root/
user.mcasolin.363417.Sherpa.DAOD_TOPQ1.e4772_s2726_r7772_r7676_p2669.HtX4Tops_00-00-12_out.root/
user.mcasolin.363418.Sherpa.DAOD_TOPQ1.e4716_s2726_r7772_r7676_p2669.HtX4Tops_00-00-12_out.root/
user.mcasolin.363419.Sherpa.DAOD_TOPQ1.e4716_s2726_r7772_r7676_p2669.HtX4Tops_00-00-12_out.root/
user.mcasolin.363420.Sherpa.DAOD_TOPQ1.e4772_s2726_r7772_r7676_p2669.HtX4Tops_00-00-12_out.root/
user.mcasolin.363421.Sherpa.DAOD_TOPQ1.e4716_s2726_r7772_r7676_p2669.HtX4Tops_00-00-12_out.root/
user.mcasolin.363422.Sherpa.DAOD_TOPQ1.e4716_s2726_r7772_r7676_p2669.HtX4Tops_00-00-12_out.root/
user.mcasolin.363423.Sherpa.DAOD_TOPQ1.e4716_s2726_r7772_r7676_p2669.HtX4Tops_00-00-12_out.root/
user.mcasolin.363424.Sherpa.DAOD_TOPQ1.e4716_s2726_r7772_r7676_p2669.HtX4Tops_00-00-12_out.root/
user.mcasolin.363425.Sherpa.DAOD_TOPQ1.e4716_s2726_r7772_r7676_p2669.HtX4Tops_00-00-12_out.root/
user.mcasolin.363426.Sherpa.DAOD_TOPQ1.e4716_s2726_r7772_r7676_p2669.HtX4Tops_00-00-12_out.root/
user.mcasolin.363427.Sherpa.DAOD_TOPQ1.e4716_s2726_r7772_r7676_p2669.HtX4Tops_00-00-12_out.root/
user.mcasolin.363428.Sherpa.DAOD_TOPQ1.e4716_s2726_r7772_r7676_p2669.HtX4Tops_00-00-12_out.root/
user.mcasolin.363429.Sherpa.DAOD_TOPQ1.e4716_s2726_r7772_r7676_p2669.HtX4Tops_00-00-12_out.root/
user.mcasolin.363430.Sherpa.DAOD_TOPQ1.e4716_s2726_r7772_r7676_p2669.HtX4Tops_00-00-12_out.root/
user.mcasolin.363431.Sherpa.DAOD_TOPQ1.e4716_s2726_r7772_r7676_p2669.HtX4Tops_00-00-12_out.root/
user.mcasolin.363432.Sherpa.DAOD_TOPQ1.e4772_s2726_r7772_r7676_p2669.HtX4Tops_00-00-12_out.root/
user.mcasolin.363433.Sherpa.DAOD_TOPQ1.e4716_s2726_r7772_r7676_p2669.HtX4Tops_00-00-12_out.root/
user.mcasolin.363434.Sherpa.DAOD_TOPQ1.e4716_s2726_r7772_r7676_p2669.HtX4Tops_00-00-12_out.root/
user.mcasolin.363435.Sherpa.DAOD_TOPQ1.e4772_s2726_r7772_r7676_p2669.HtX4Tops_00-00-12_out.root/
user.mcasolin.363436.Sherpa.DAOD_TOPQ1.e4715_s2726_r7725_r7676_p2669.HtX4Tops_00-00-12_out.root/
user.mcasolin.363437.Sherpa.DAOD_TOPQ1.e4715_s2726_r7725_r7676_p2669.HtX4Tops_00-00-12_out.root/
user.mcasolin.363438.Sherpa.DAOD_TOPQ1.e4715_s2726_r7725_r7676_p2669.HtX4Tops_00-00-12_out.root/
user.mcasolin.363439.Sherpa.DAOD_TOPQ1.e4715_s2726_r7725_r7676_p2669.HtX4Tops_00-00-12_out.root/
user.mcasolin.363440.Sherpa.DAOD_TOPQ1.e4715_s2726_r7725_r7676_p2669.HtX4Tops_00-00-12_out.root/
user.mcasolin.363441.Sherpa.DAOD_TOPQ1.e4771_s2726_r7725_r7676_p2669.HtX4Tops_00-00-12_out.root/
user.mcasolin.363442.Sherpa.DAOD_TOPQ1.e4715_s2726_r7725_r7676_p2669.HtX4Tops_00-00-12_out.root/
user.mcasolin.363443.Sherpa.DAOD_TOPQ1.e4715_s2726_r7725_r7676_p2669.HtX4Tops_00-00-12_out.root/
user.mcasolin.363444.Sherpa.DAOD_TOPQ1.e4715_s2726_r7725_r7676_p2669.HtX4Tops_00-00-12_out.root/
user.mcasolin.363445.Sherpa.DAOD_TOPQ1.e4715_s2726_r7725_r7676_p2669.HtX4Tops_00-00-12_out.root/
user.mcasolin.363446.Sherpa.DAOD_TOPQ1.e4715_s2726_r7725_r7676_p2669.HtX4Tops_00-00-12_out.root/
user.mcasolin.363447.Sherpa.DAOD_TOPQ1.e4715_s2726_r7725_r7676_p2669.HtX4Tops_00-00-12_out.root/
user.mcasolin.363448.Sherpa.DAOD_TOPQ1.e4715_s2726_r7725_r7676_p2669.HtX4Tops_00-00-12_out.root/
user.mcasolin.363449.Sherpa.DAOD_TOPQ1.e4715_s2726_r7725_r7676_p2669.HtX4Tops_00-00-12_out.root/
user.mcasolin.363450.Sherpa.DAOD_TOPQ1.e4715_s2726_r7725_r7676_p2669.HtX4Tops_00-00-12_out.root/
user.mcasolin.363451.Sherpa.DAOD_TOPQ1.e4715_s2726_r7725_r7676_p2669.HtX4Tops_00-00-12_out.root/
user.mcasolin.363452.Sherpa.DAOD_TOPQ1.e4715_s2726_r7725_r7676_p2669.HtX4Tops_00-00-12_out.root/
user.mcasolin.363453.Sherpa.DAOD_TOPQ1.e4715_s2726_r7725_r7676_p2669.HtX4Tops_00-00-12_out.root/
user.mcasolin.363454.Sherpa.DAOD_TOPQ1.e4715_s2726_r7725_r7676_p2669.HtX4Tops_00-00-12_out.root/
user.mcasolin.363455.Sherpa.DAOD_TOPQ1.e4715_s2726_r7725_r7676_p2669.HtX4Tops_00-00-12_out.root/
user.mcasolin.363456.Sherpa.DAOD_TOPQ1.e4715_s2726_r7725_r7676_p2669.HtX4Tops_00-00-12_out.root/
user.mcasolin.363457.Sherpa.DAOD_TOPQ1.e4715_s2726_r7725_r7676_p2669.HtX4Tops_00-00-12_out.root/
user.mcasolin.363458.Sherpa.DAOD_TOPQ1.e4715_s2726_r7725_r7676_p2669.HtX4Tops_00-00-12_out.root/
user.mcasolin.363459.Sherpa.DAOD_TOPQ1.e4715_s2726_r7725_r7676_p2669.HtX4Tops_00-00-12_out.root/
user.mcasolin.363460.Sherpa.DAOD_TOPQ1.e4715_s2726_r7725_r7676_p2669.HtX4Tops_00-00-12_out.root/
user.mcasolin.363461.Sherpa.DAOD_TOPQ1.e4715_s2726_r7725_r7676_p2669.HtX4Tops_00-00-12_out.root/
user.mcasolin.363462.Sherpa.DAOD_TOPQ1.e4715_s2726_r7725_r7676_p2669.HtX4Tops_00-00-12_out.root/
user.mcasolin.363463.Sherpa.DAOD_TOPQ1.e4715_s2726_r7725_r7676_p2669.HtX4Tops_00-00-12_out.root/
user.mcasolin.363464.Sherpa.DAOD_TOPQ1.e4715_s2726_r7725_r7676_p2669.HtX4Tops_00-00-12_out.root/
user.mcasolin.363465.Sherpa.DAOD_TOPQ1.e4715_s2726_r7725_r7676_p2669.HtX4Tops_00-00-12_out.root/
user.mcasolin.363466.Sherpa.DAOD_TOPQ1.e4715_s2726_r7725_r7676_p2669.HtX4Tops_00-00-12_out.root/
user.mcasolin.363467.Sherpa.DAOD_TOPQ1.e4715_s2726_r7725_r7676_p2669.HtX4Tops_00-00-12_out.root/
user.mcasolin.363468.Sherpa.DAOD_TOPQ1.e4715_s2726_r7725_r7676_p2669.HtX4Tops_00-00-12_out.root/
user.mcasolin.363469.Sherpa.DAOD_TOPQ1.e4715_s2726_r7725_r7676_p2669.HtX4Tops_00-00-12_out.root/
user.mcasolin.363470.Sherpa.DAOD_TOPQ1.e4715_s2726_r7725_r7676_p2669.HtX4Tops_00-00-12_out.root/
user.mcasolin.363471.Sherpa.DAOD_TOPQ1.e4715_s2726_r7725_r7676_p2669.HtX4Tops_00-00-12_out.root/
user.mcasolin.363472.Sherpa.DAOD_TOPQ1.e4715_s2726_r7725_r7676_p2669.HtX4Tops_00-00-12_out.root/
user.mcasolin.363473.Sherpa.DAOD_TOPQ1.e4715_s2726_r7725_r7676_p2669.HtX4Tops_00-00-12_out.root/
user.mcasolin.363474.Sherpa.DAOD_TOPQ1.e4771_s2726_r7725_r7676_p2669.HtX4Tops_00-00-12_out.root/
user.mcasolin.363475.Sherpa.DAOD_TOPQ1.e4715_s2726_r7725_r7676_p2669.HtX4Tops_00-00-12_out.root/
user.mcasolin.363476.Sherpa.DAOD_TOPQ1.e4715_s2726_r7725_r7676_p2669.HtX4Tops_00-00-12_out.root/
user.mcasolin.363477.Sherpa.DAOD_TOPQ1.e4715_s2726_r7725_r7676_p2669.HtX4Tops_00-00-12_out.root/
user.mcasolin.363478.Sherpa.DAOD_TOPQ1.e4715_s2726_r7725_r7676_p2669.HtX4Tops_00-00-12_out.root/
user.mcasolin.363479.Sherpa.DAOD_TOPQ1.e4715_s2726_r7725_r7676_p2669.HtX4Tops_00-00-12_out.root/
user.mcasolin.363480.Sherpa.DAOD_TOPQ1.e4715_s2726_r7725_r7676_p2669.HtX4Tops_00-00-12_out.root/
user.mcasolin.363481.Sherpa.DAOD_TOPQ1.e4715_s2726_r7725_r7676_p2669.HtX4Tops_00-00-12_out.root/
user.mcasolin.363482.Sherpa.DAOD_TOPQ1.e4715_s2726_r7772_r7676_p2669.HtX4Tops_00-00-12_out.root/
user.mcasolin.363483.Sherpa.DAOD_TOPQ1.e4715_s2726_r7725_r7676_p2669.HtX4Tops_00-00-12_out.root/
user.mcasolin.410000.PowhegPythiaEvtGen.DAOD_TOPQ1.e3698_s2608_s2183_r7725_r7676_p2669.HtX4Tops_00-00-12_out.root/
user.mcasolin.410011.PowhegPythiaEvtGen.DAOD_TOPQ1.e3824_s2608_s2183_r7725_r7676_p2669.HtX4Tops_00-00-12_out.root/
user.mcasolin.410012.PowhegPythiaEvtGen.DAOD_TOPQ1.e3824_s2608_s2183_r7725_r7676_p2669.HtX4Tops_00-00-12_out.root/
user.mcasolin.410013.PowhegPythiaEvtGen.DAOD_TOPQ1.e3753_s2608_s2183_r7725_r7676_p2669.HtX4Tops_00-00-12_out.root/
user.mcasolin.410014.PowhegPythiaEvtGen.DAOD_TOPQ1.e3753_s2608_s2183_r7725_r7676_p2669.HtX4Tops_00-00-12_out.root/
user.mcasolin.410015.PowhegPythiaEvtGen.DAOD_TOPQ1.e3753_s2608_s2183_r7725_r7676_p2669.HtX4Tops_00-00-12_out.root/
user.mcasolin.410016.PowhegPythiaEvtGen.DAOD_TOPQ1.e3753_s2608_s2183_r7725_r7676_p2669.HtX4Tops_00-00-12_out.root/
user.mcasolin.410017.PowhegPythiaEvtGen.DAOD_TOPQ1.e3978_a766_a818_r7676_p2669.HtX4Tops_00-00-12_out.root/
user.mcasolin.410018.PowhegPythiaEvtGen.DAOD_TOPQ1.e3978_a766_a818_r7676_p2669.HtX4Tops_00-00-12_out.root/
user.mcasolin.410019.PowhegPythiaEvtGen.DAOD_TOPQ1.e3978_a766_a818_r7676_p2669.HtX4Tops_00-00-12_out.root/
user.mcasolin.410020.PowhegPythiaEvtGen.DAOD_TOPQ1.e3978_a766_a818_r7676_p2669.HtX4Tops_00-00-12_out.root/
user.mcasolin.410025.PowhegPythiaEvtGen.DAOD_TOPQ1.e3998_s2608_s2183_r7725_r7676_p2669.HtX4Tops_00-00-12_out.root/
user.mcasolin.410026.PowhegPythiaEvtGen.DAOD_TOPQ1.e3998_s2608_s2183_r7725_r7676_p2669.HtX4Tops_00-00-12_out.root/
user.mcasolin.410047.PowhegHerwigppEvtGen.DAOD_TOPQ1.e4775_a766_a818_r7676_p2669.HtX4Tops_00-00-12_out.root/
user.mcasolin.410048.PowhegHerwigppEvtGen.DAOD_TOPQ1.e4775_a766_a818_r7676_p2669.HtX4Tops_00-00-12_out.root/
user.mcasolin.410062.PowhegPythiaEvtGen.DAOD_TOPQ1.e4132_s2608_s2183_r7725_r7676_p2669.HtX4Tops_00-00-12_out.root/
user.mcasolin.410063.PowhegPythiaEvtGen.DAOD_TOPQ1.e4132_s2608_s2183_r7725_r7676_p2669.HtX4Tops_00-00-12_out.root/
user.mcasolin.410066.MadGraphPythia8EvtGen.DAOD_TOPQ1.e4111_s2608_s2183_r7725_r7676_p2669.HtX4Tops_00-00-12_out.root/
user.mcasolin.410067.MadGraphPythia8EvtGen.DAOD_TOPQ1.e4111_s2608_s2183_r7725_r7676_p2669.HtX4Tops_00-00-12_out.root/
user.mcasolin.410068.MadGraphPythia8EvtGen.DAOD_TOPQ1.e4111_s2608_s2183_r7725_r7676_p2669.HtX4Tops_00-00-12_out.root/
user.mcasolin.410073.MadGraphPythia8EvtGen.DAOD_TOPQ1.e4631_s2726_r7725_r7676_p2669.HtX4Tops_00-00-12_out.root/
user.mcasolin.410074.MadGraphPythia8EvtGen.DAOD_TOPQ1.e4631_s2726_r7725_r7676_p2669.HtX4Tops_00-00-12_out.root/
user.mcasolin.410075.MadGraphPythia8EvtGen.DAOD_TOPQ1.e4631_s2726_r7725_r7676_p2669.HtX4Tops_00-00-12_out.root/
user.mcasolin.410080.MadGraphPythia8EvtGen.DAOD_TOPQ1.e4111_s2608_s2183_r7725_r7676_p2669.HtX4Tops_00-00-12_out.root/
user.mcasolin.410081.MadGraphPythia8EvtGen.DAOD_TOPQ1.e4111_s2608_s2183_r7725_r7676_p2669.HtX4Tops_00-00-12_out.root/
user.mcasolin.410099.PowhegPythiaEvtGen.DAOD_TOPQ1.e4403_a766_a818_r7676_p2669.HtX4Tops_00-00-12_out.root/
user.mcasolin.410100.PowhegPythiaEvtGen.DAOD_TOPQ1.e4403_a766_a818_r7676_p2669.HtX4Tops_00-00-12_out.root/
user.mcasolin.410101.PowhegPythiaEvtGen.DAOD_TOPQ1.e4403_a766_a818_r7676_p2669.HtX4Tops_00-00-12_out.root/
user.mcasolin.410102.PowhegPythiaEvtGen.DAOD_TOPQ1.e4403_a766_a818_r7676_p2669.HtX4Tops_00-00-12_out.root/
user.mcasolin.410107.PowhegPythiaEvtGen.DAOD_TOPQ1.e4403_a766_a818_r7676_p2669.HtX4Tops_00-00-12_out.root/
user.mcasolin.410108.PowhegPythiaEvtGen.DAOD_TOPQ1.e4403_a766_a818_r7676_p2669.HtX4Tops_00-00-12_out.root/
user.mcasolin.410109.PowhegPythiaEvtGen.DAOD_TOPQ1.e4403_a766_a818_r7676_p2669.HtX4Tops_00-00-12_out.root/
user.mcasolin.410110.PowhegPythiaEvtGen.DAOD_TOPQ1.e4403_a766_a818_r7676_p2669.HtX4Tops_00-00-12_out.root/
user.mcasolin.410111.MadGraphPythia8EvtGen.DAOD_TOPQ1.e4632_s2726_r7725_r7676_p2669.HtX4Tops_00-00-12_out.root/
user.mcasolin.410112.MadGraphPythia8EvtGen.DAOD_TOPQ1.e4632_s2726_r7725_r7676_p2669.HtX4Tops_00-00-12_out.root/
user.mcasolin.410113.MadGraphPythia8EvtGen.DAOD_TOPQ1.e4632_s2726_r7725_r7676_p2669.HtX4Tops_00-00-12_out.root/
user.mcasolin.410114.MadGraphPythia8EvtGen.DAOD_TOPQ1.e4632_s2726_r7725_r7676_p2669.HtX4Tops_00-00-12_out.root/
user.mcasolin.410115.MadGraphPythia8EvtGen.DAOD_TOPQ1.e4632_s2726_r7725_r7676_p2669.HtX4Tops_00-00-12_out.root/
user.mcasolin.410116.MadGraphPythia8EvtGen.DAOD_TOPQ1.e4632_s2726_r7725_r7676_p2669.HtX4Tops_00-00-12_out.root/
user.mcasolin.410120.PowhegPythiaEvtGen.DAOD_TOPQ1.e4373_s2608_r7725_r7676_p2669.HtX4Tops_00-00-12_out.root/
user.mcasolin.410147.PowhegHerwigppEvtGen.DAOD_TOPQ1.e4595_a766_a818_r7676_p2669.HtX4Tops_00-00-12_out.root/
user.mcasolin.410148.PowhegHerwigppEvtGen.DAOD_TOPQ1.e4595_a766_a818_r7676_p2669.HtX4Tops_00-00-12_out.root/
